{
    "success": true,
    "message": null,
    "data": {
        "pageSize": 15,
        "rows": [
            {
                "userName": "333",
                "userType": 333,
                "password": "333",
                "id": 11,
                "indexcode": "333"
            },
            {
                "userName": "3",
                "userType": 333,
                "password": "333",
                "id": 5,
                "indexcode": "33333"
            }
        ],
        "total": 17,
        "totalPage": 2,
        "page": 0,
        "hasPreviousPage": true,
        "hasNextPage": true,
        "lastPage": false,
        "firstPage": false
    }
}